{
	"fulfilledAnyCanBeUpgraded" : false,
	"questPriority" : 2,
	"hideoutPriority" : 3,
	"wishlistPriority" : 4,
	"barterPriority" : 0,
	"craftPriority" : 1,
	"showFutureModulesLevels" : false,
	"showBarter" : true,
	"showCraft" : true,
	"showFutureCraft" : false,
	"needMoreColor" : [ 1,0.37255,0.37255 ], 
	"fulfilledColor" : [ 0.30588,1,0.27843 ], 
	"wishlistColor" : [ 0,0,1 ],
	"barterColor" : [ 1,0,1 ],
	"craftColor" : [ 0,1,1 ],
	"includeFutureQuests" : false 
}
